version="1.0"
tags={
	"Graphics"
}
name="Roven's Rectangular Flags"
picture="thumbnail.png"
supported_version="1.36.2"
path="D:/Roven-PC/Documents/Paradox Interactive/Europa Universalis IV/mod/RRF"
remote_file_id="3147616498"